<?xml version="1.0" encoding="UTF-8" standalone="no"?>
<!-- Created with Inkscape (http://www.inkscape.org/) -->

<svg
   width="190"
   height="190"
   viewBox="0 0 190 190"
   version="1.1"
   id="svg5"
   xmlns:xlink="http://www.w3.org/1999/xlink"
   xmlns="http://www.w3.org/2000/svg"
   xmlns:svg="http://www.w3.org/2000/svg">
  <defs
     id="defs2">
    <linearGradient
       id="linearGradient2922">
      <stop
         style="stop-color:#000000;stop-opacity:1;"
         offset="0"
         id="stop2918" />
      <stop
         style="stop-color:#000000;stop-opacity:0;"
         offset="1"
         id="stop2920" />
    </linearGradient>
    <rect
       x="13.627879"
       y="59.548416"
       width="111.21325"
       height="97.633041"
       id="rect5030" />
    <linearGradient
       xlink:href="#linearGradient2922"
       id="linearGradient2924"
       x1="90.118146"
       y1="164.56091"
       x2="170.81263"
       y2="164.56091"
       gradientUnits="userSpaceOnUse" />
  </defs>
  <g
     id="layer2"
     style="display:none">
    <rect
       style="display:inline;fill:#ffffff;fill-opacity:1;fill-rule:evenodd;stroke:none;stroke-width:2.04836;stroke-linejoin:round;stroke-miterlimit:4;stroke-dasharray:none;stroke-opacity:1"
       id="rect53-7"
       width="184.064"
       height="184.064"
       x="3.0180202"
       y="3.0180202"
       ry="17" />
  </g>
  <g
     id="layer1">
    <path
       style="color:#000000;fill:#000000;fill-rule:evenodd;stroke-linejoin:round;-inkscape-stroke:hairline;fill-opacity:1;stroke:#ffffff;stroke-opacity:1;stroke-width:0.000001;vector-effect:non-scaling-stroke;stroke-miterlimit:4;stroke-dasharray:none"
       d="M 19.966797,4 C 11.138816,4 4,11.138816 4,19.966797 V 169.78516 c 0,8.82798 7.138816,15.96679 15.966797,15.96679 H 169.73242 c 8.82798,0 15.9668,-7.13881 15.9668,-15.96679 V 19.966797 C 185.69922,11.138816 178.5604,4 169.73242,4 Z m 0,2 H 169.73242 c 7.75458,0 13.9668,6.21222 13.9668,13.966797 V 169.78516 c 0,7.75457 -6.21222,13.96679 -13.9668,13.96679 H 19.966797 C 12.21222,183.75195 6,177.53973 6,169.78516 V 19.966797 C 6,12.21222 12.21222,6 19.966797,6 Z"
       id="rect53" />
    <text
       xml:space="preserve"
       id="text5028"
       style="font-style:normal;font-variant:normal;font-weight:bold;font-stretch:normal;font-size:55.9664px;line-height:1.25;font-family:sans-serif;-inkscape-font-specification:'sans-serif, Bold';font-variant-ligatures:normal;font-variant-caps:normal;font-variant-numeric:normal;font-variant-east-asian:normal;white-space:pre;shape-inside:url(#rect5030);display:inline;vector-effect:non-scaling-stroke;fill:#000000;fill-opacity:1;stroke:none;stroke-width:0;stroke-miterlimit:4;stroke-dasharray:none;stroke-opacity:1;-inkscape-stroke:hairline"
       transform="matrix(1.7767576,0,0,1.5652748,1.1199194,-51.120758)"><tspan
         x="13.626953"
         y="111.31775"
         id="tspan42"><tspan
           style="vector-effect:non-scaling-stroke"
           id="tspan40">Cu</tspan></tspan></text>
    <text
       xml:space="preserve"
       style="font-style:normal;font-variant:normal;font-weight:normal;font-stretch:normal;font-size:26.6667px;line-height:1.25;font-family:sans-serif;-inkscape-font-specification:'sans-serif, Normal';font-variant-ligatures:normal;font-variant-caps:normal;font-variant-numeric:normal;font-variant-east-asian:normal;fill:#000000;fill-opacity:1;stroke:none;stroke-opacity:1;stroke-width:0;stroke-miterlimit:4;stroke-dasharray:none;paint-order:normal;vector-effect:non-scaling-stroke;-inkscape-stroke:hairline"
       x="15.241241"
       y="34.91935"
       id="text66922"><tspan
         id="tspan66920"
         x="15.241241"
         y="34.91935"
         style="font-style:normal;font-variant:normal;font-weight:normal;font-stretch:normal;font-size:26.6667px;font-family:sans-serif;-inkscape-font-specification:'sans-serif, Normal';font-variant-ligatures:normal;font-variant-caps:normal;font-variant-numeric:normal;font-variant-east-asian:normal;fill:#000000;fill-opacity:1;stroke:none;stroke-opacity:1;stroke-width:0;stroke-miterlimit:4;stroke-dasharray:none;vector-effect:non-scaling-stroke;-inkscape-stroke:hairline">29</tspan></text>
    <text
       xml:space="preserve"
       style="font-style:normal;font-variant:normal;font-weight:normal;font-stretch:normal;font-size:26.6667px;line-height:1.25;font-family:sans-serif;-inkscape-font-specification:'sans-serif, Normal';font-variant-ligatures:normal;font-variant-caps:normal;font-variant-numeric:normal;font-variant-east-asian:normal;fill:#000000;fill-opacity:1;stroke:none;stroke-width:0;stroke-miterlimit:4;stroke-dasharray:none;stroke-opacity:1;paint-order:normal"
       x="91.402611"
       y="168.75438"
       id="text66922-3"><tspan
         id="tspan66920-6"
         x="91.402611"
         y="168.75438"
         style="font-style:normal;font-variant:normal;font-weight:normal;font-stretch:normal;font-size:26.6667px;font-family:sans-serif;-inkscape-font-specification:'sans-serif, Normal';font-variant-ligatures:normal;font-variant-caps:normal;font-variant-numeric:normal;font-variant-east-asian:normal;fill:#000000;fill-opacity:1;stroke:none;stroke-width:0;stroke-miterlimit:4;stroke-dasharray:none;stroke-opacity:1">63.546</tspan></text>
  </g>
</svg>
